Edge/build/wave.vcd
$date
	Thu Mar  3 19:50:08 2022
$end
$version
	Icarus Verilog
$end
$timescale
	1ps
$end
$scope module test $end
$var wire 1 ! pulse $end
$var reg 1 " clk $end
$var reg 1 # din $end
$var reg 1 $ rstn $end
$scope module redge $end
$var wire 1 " clk $end
$var wire 1 # din $end
$var wire 1 ! pulse $end
$var wire 1 $ rstn $end
$var reg 1 % din_dly $end
$upscope $end
$upscope $end
$enddefinitions $end
#0
$dumpvars
0%
0$
0#
0"
0!
$end
#5000
1$
1"
#10000
0"
#15000
1"
#16000
1!
1#
#20000
0"
#25000
0!
1%
1"
#30000
0"
#35000
0%
1"
0#
#40000
0"
#45000
1"
#50000
0"
#55000
1"
#60000
0"
#65000
1"
#70000
0"
#75000
1"
#80000
0"
#85000
1%
0!
1"
1#
#90000
0"
#95000
1!
0%
1"
0$
#100000
0"
#105000
0!
1%
1"
1$
#110000
0"
#115000
1"
#120000
0"
#125000
0%
1"
0#
