FIFO/build/wave.vcd
$date
	Thu Mar  3 21:37:24 2022
$end
$version
	Icarus Verilog
$end
$timescale
	1s
$end
$scope module sync_fifo_tb $end
$var wire 1 ! empty $end
$var wire 1 " full $end
$var wire 1 # underflow $end
$var wire 8 $ rd_data [7:0] $end
$var wire 1 % overflow $end
$var wire 1 & almost_full $end
$var wire 1 ' almost_empty $end
$var reg 1 ( clk $end
$var reg 1 ) rd_en $end
$var reg 1 * rst_n $end
$var reg 8 + wr_data [7:0] $end
$var reg 1 , wr_en $end
$scope module sync_fifo_out $end
$var wire 1 ( clk $end
$var wire 1 ! empty $end
$var wire 1 " full $end
$var wire 1 ) rd_en $end
$var wire 1 * rst_n $end
$var wire 8 - wr_data [7:0] $end
$var wire 1 , wr_en $end
$var wire 1 & almost_full $end
$var wire 1 ' almost_empty $end
$var reg 4 . fifo_cnt [3:0] $end
$var reg 1 % overflow $end
$var reg 8 / rd_data [7:0] $end
$var reg 3 0 rd_ptr [2:0] $end
$var reg 1 # underflow $end
$var reg 3 1 wr_ptr [2:0] $end
$var integer 32 2 II [31:0] $end
$scope begin genblk2 $end
$upscope $end
$upscope $end
$scope task send_rd $end
$upscope $end
$scope task send_wr $end
$upscope $end
$upscope $end
$enddefinitions $end
#0
$dumpvars
b1000 2
b0 1
b0 0
b0 /
b0 .
bx -
0,
bx +
0*
0)
0(
1'
0&
0%
b0 $
0#
0"
0!
$end
#5
1(
b0 +
b0 -
1*
#10
0(
#15
1(
#20
0(
#25
1(
#30
0(
#35
1(
#40
0(
#45
1(
#50
0(
#55
1(
#60
0(
#65
1(
#70
0(
#75
1(
#80
0(
#85
1(
#90
0(
#95
1(
#100
0(
#105
b1000 2
1(
0*
#110
0(
#115
b1000 2
1(
#120
0(
#125
b1000 2
1(
#130
0(
#135
b1000 2
1(
#140
0(
#145
b1000 2
1(
#150
0(
#155
b1000 2
1(
#160
0(
#165
b1000 2
1(
#170
0(
#175
b1000 2
1(
#180
0(
#185
b1000 2
1(
#190
0(
#195
b1000 2
1(
#200
0(
#205
b1000 2
1(
#210
0(
#215
b1000 2
1(
#220
0(
#225
b1000 2
1(
#230
0(
#235
b1000 2
1(
#240
0(
#245
b1000 2
1(
#250
0(
#255
b1000 2
1(
#260
0(
#265
b1000 2
1(
#270
0(
#275
b1000 2
1(
#280
0(
#285
b1000 2
1(
#290
0(
#295
b1000 2
1(
#300
0(
#305
1(
1*
#310
0(
#315
1(
#320
0(
#325
1(
#330
0(
#335
1(
#340
0(
#345
1(
#350
0(
#355
1(
#360
0(
#365
1(
#370
0(
#375
1(
#380
0(
#385
1(
#390
0(
#395
1(
#400
0(
#405
1(
#410
0(
#415
1(
#420
0(
#425
1(
#430
0(
#435
1(
#440
0(
#445
1(
#450
0(
#455
1(
#460
0(
#465
1(
#470
0(
#475
1(
#480
0(
#485
1(
#490
0(
#495
1(
#500
0(
#505
1,
b10100101 +
b10100101 -
1(
#510
0(
#515
b1 .
b1 1
b10100110 +
b10100110 -
1(
#520
0(
#525
b10 1
0'
b10 .
b10100111 +
b10100111 -
1(
#530
0(
#535
b11 .
b11 1
b10101000 +
b10101000 -
1(
#540
0(
#545
b100 1
b100 .
0,
1(
